-------------------------------------------------------------------------------
Test set: ru.codeinside.smev.v3.crypto.bc.GostR3411ImplTest
-------------------------------------------------------------------------------
Tests run: 2, Failures: 0, Errors: 0, Skipped: 0, Time elapsed: 0.045 sec
