C:\work\merdge_siu\workspaceYar\workspaceNeonSIUYo\siu\gws-smev3\smev-v3-service-api\src\main\java\ru\codeinside\smev\v3\service\api\MsgDataField.java
C:\work\merdge_siu\workspaceYar\workspaceNeonSIUYo\siu\gws-smev3\smev-v3-service-api\src\main\java\ru\codeinside\smev\v3\service\api\AsyncProcessingStatus.java
C:\work\merdge_siu\workspaceYar\workspaceNeonSIUYo\siu\gws-smev3\smev-v3-service-api\src\main\java\ru\codeinside\smev\v3\service\api\UUID.java
C:\work\merdge_siu\workspaceYar\workspaceNeonSIUYo\siu\gws-smev3\smev-v3-service-api\src\main\java\ru\codeinside\smev\v3\service\api\FTPUtils.java
C:\work\merdge_siu\workspaceYar\workspaceNeonSIUYo\siu\gws-smev3\smev-v3-service-api\src\main\java\ru\codeinside\smev\v3\service\api\InteractionStatus.java
C:\work\merdge_siu\workspaceYar\workspaceNeonSIUYo\siu\gws-smev3\smev-v3-service-api\src\main\java\ru\codeinside\smev\v3\service\api\provider\ProviderResponseData.java
C:\work\merdge_siu\workspaceYar\workspaceNeonSIUYo\siu\gws-smev3\smev-v3-service-api\src\main\java\ru\codeinside\smev\v3\service\api\consumer\ConsumerRequest.java
C:\work\merdge_siu\workspaceYar\workspaceNeonSIUYo\siu\gws-smev3\smev-v3-service-api\src\main\java\ru\codeinside\smev\v3\service\api\consumer\OrganizationRequest.java
C:\work\merdge_siu\workspaceYar\workspaceNeonSIUYo\siu\gws-smev3\smev-v3-service-api\src\main\java\ru\codeinside\smev\v3\service\api\QueueStatistic.java
C:\work\merdge_siu\workspaceYar\workspaceNeonSIUYo\siu\gws-smev3\smev-v3-service-api\src\main\java\ru\codeinside\smev\v3\service\api\TimestampRequest.java
C:\work\merdge_siu\workspaceYar\workspaceNeonSIUYo\siu\gws-smev3\smev-v3-service-api\src\main\java\ru\codeinside\smev\v3\service\api\package-info.java
C:\work\merdge_siu\workspaceYar\workspaceNeonSIUYo\siu\gws-smev3\smev-v3-service-api\src\main\java\ru\codeinside\smev\v3\service\api\provider\ProviderRequestException.java
C:\work\merdge_siu\workspaceYar\workspaceNeonSIUYo\siu\gws-smev3\smev-v3-service-api\src\main\java\ru\codeinside\smev\v3\service\api\AcknowledgeRequest.java
C:\work\merdge_siu\workspaceYar\workspaceNeonSIUYo\siu\gws-smev3\smev-v3-service-api\src\main\java\ru\codeinside\smev\v3\service\api\provider\Request.java
C:\work\merdge_siu\workspaceYar\workspaceNeonSIUYo\siu\gws-smev3\smev-v3-service-api\src\main\java\ru\codeinside\smev\v3\service\api\provider\Cancel.java
C:\work\merdge_siu\workspaceYar\workspaceNeonSIUYo\siu\gws-smev3\smev-v3-service-api\src\main\java\ru\codeinside\smev\v3\service\api\PersonalData.java
C:\work\merdge_siu\workspaceYar\workspaceNeonSIUYo\siu\gws-smev3\smev-v3-service-api\src\main\java\ru\codeinside\smev\v3\service\api\Base64.java
C:\work\merdge_siu\workspaceYar\workspaceNeonSIUYo\siu\gws-smev3\smev-v3-service-api\src\main\java\ru\codeinside\smev\v3\service\api\StatusParameter.java
C:\work\merdge_siu\workspaceYar\workspaceNeonSIUYo\siu\gws-smev3\smev-v3-service-api\src\main\java\ru\codeinside\smev\v3\service\api\SmevFault.java
C:\work\merdge_siu\workspaceYar\workspaceNeonSIUYo\siu\gws-smev3\smev-v3-service-api\src\main\java\ru\codeinside\smev\v3\service\api\Smev3LogService.java
C:\work\merdge_siu\workspaceYar\workspaceNeonSIUYo\siu\gws-smev3\smev-v3-service-api\src\main\java\ru\codeinside\smev\v3\service\api\consumer\OrganizationRequestData.java
C:\work\merdge_siu\workspaceYar\workspaceNeonSIUYo\siu\gws-smev3\smev-v3-service-api\src\main\java\ru\codeinside\smev\v3\service\api\MessageIdentifier.java
C:\work\merdge_siu\workspaceYar\workspaceNeonSIUYo\siu\gws-smev3\smev-v3-service-api\src\main\java\ru\codeinside\smev\v3\service\api\ProviderRequestContext.java
C:\work\merdge_siu\workspaceYar\workspaceNeonSIUYo\siu\gws-smev3\smev-v3-service-api\src\main\java\ru\codeinside\smev\v3\service\api\provider\RequestMessage.java
C:\work\merdge_siu\workspaceYar\workspaceNeonSIUYo\siu\gws-smev3\smev-v3-service-api\src\main\java\ru\codeinside\smev\v3\service\api\AcknowledgeRequestData.java
C:\work\merdge_siu\workspaceYar\workspaceNeonSIUYo\siu\gws-smev3\smev-v3-service-api\src\main\java\ru\codeinside\smev\v3\service\api\RequestStatus.java
C:\work\merdge_siu\workspaceYar\workspaceNeonSIUYo\siu\gws-smev3\smev-v3-service-api\src\main\java\ru\codeinside\smev\v3\service\api\provider\ProviderResponseBuilder.java
C:\work\merdge_siu\workspaceYar\workspaceNeonSIUYo\siu\gws-smev3\smev-v3-service-api\src\main\java\ru\codeinside\smev\v3\service\api\TimestampData.java
C:\work\merdge_siu\workspaceYar\workspaceNeonSIUYo\siu\gws-smev3\smev-v3-service-api\src\main\java\ru\codeinside\smev\v3\service\api\InformationType.java
C:\work\merdge_siu\workspaceYar\workspaceNeonSIUYo\siu\gws-smev3\smev-v3-service-api\src\main\java\ru\codeinside\smev\v3\service\api\MessageReference.java
C:\work\merdge_siu\workspaceYar\workspaceNeonSIUYo\siu\gws-smev3\smev-v3-service-api\src\main\java\ru\codeinside\smev\v3\service\api\FTPCredentials.java
C:\work\merdge_siu\workspaceYar\workspaceNeonSIUYo\siu\gws-smev3\smev-v3-service-api\src\main\java\ru\codeinside\smev\v3\service\api\consumer\Response.java
C:\work\merdge_siu\workspaceYar\workspaceNeonSIUYo\siu\gws-smev3\smev-v3-service-api\src\main\java\ru\codeinside\smev\v3\service\api\consumer\ResponseMessage.java
C:\work\merdge_siu\workspaceYar\workspaceNeonSIUYo\siu\gws-smev3\smev-v3-service-api\src\main\java\ru\codeinside\smev\v3\service\api\MessageMetadata.java
C:\work\merdge_siu\workspaceYar\workspaceNeonSIUYo\siu\gws-smev3\smev-v3-service-api\src\main\java\ru\codeinside\smev\v3\service\api\consumer\ConsumerRequestBuilder.java
C:\work\merdge_siu\workspaceYar\workspaceNeonSIUYo\siu\gws-smev3\smev-v3-service-api\src\main\java\ru\codeinside\smev\v3\service\api\MessageIdentifierData.java
C:\work\merdge_siu\workspaceYar\workspaceNeonSIUYo\siu\gws-smev3\smev-v3-service-api\src\main\java\ru\codeinside\smev\v3\service\api\provider\Provider.java
C:\work\merdge_siu\workspaceYar\workspaceNeonSIUYo\siu\gws-smev3\smev-v3-service-api\src\main\java\ru\codeinside\smev\v3\service\api\ContentProvider.java
C:\work\merdge_siu\workspaceYar\workspaceNeonSIUYo\siu\gws-smev3\smev-v3-service-api\src\main\java\ru\codeinside\smev\v3\service\api\RejectionCode.java
C:\work\merdge_siu\workspaceYar\workspaceNeonSIUYo\siu\gws-smev3\smev-v3-service-api\src\main\java\ru\codeinside\smev\v3\service\api\RequestRejected.java
C:\work\merdge_siu\workspaceYar\workspaceNeonSIUYo\siu\gws-smev3\smev-v3-service-api\src\main\java\ru\codeinside\smev\v3\service\api\provider\RequestData.java
C:\work\merdge_siu\workspaceYar\workspaceNeonSIUYo\siu\gws-smev3\smev-v3-service-api\src\main\java\ru\codeinside\smev\v3\service\api\MessageReferenceData.java
C:\work\merdge_siu\workspaceYar\workspaceNeonSIUYo\siu\gws-smev3\smev-v3-service-api\src\main\java\ru\codeinside\smev\v3\service\api\consumer\ResponseData.java
C:\work\merdge_siu\workspaceYar\workspaceNeonSIUYo\siu\gws-smev3\smev-v3-service-api\src\main\java\ru\codeinside\smev\v3\service\api\consumer\Consumer.java
C:\work\merdge_siu\workspaceYar\workspaceNeonSIUYo\siu\gws-smev3\smev-v3-service-api\src\main\java\ru\codeinside\smev\v3\service\api\SystemMessage.java
C:\work\merdge_siu\workspaceYar\workspaceNeonSIUYo\siu\gws-smev3\smev-v3-service-api\src\main\java\ru\codeinside\smev\v3\service\api\HaunterLog.java
C:\work\merdge_siu\workspaceYar\workspaceNeonSIUYo\siu\gws-smev3\smev-v3-service-api\src\main\java\ru\codeinside\smev\v3\service\api\SignedData.java
C:\work\merdge_siu\workspaceYar\workspaceNeonSIUYo\siu\gws-smev3\smev-v3-service-api\src\main\java\ru\codeinside\smev\v3\service\api\provider\ProvidedResponse.java
C:\work\merdge_siu\workspaceYar\workspaceNeonSIUYo\siu\gws-smev3\smev-v3-service-api\src\main\java\ru\codeinside\smev\v3\service\api\provider\ProviderResponse.java
C:\work\merdge_siu\workspaceYar\workspaceNeonSIUYo\siu\gws-smev3\smev-v3-service-api\src\main\java\ru\codeinside\smev\v3\service\api\Smev.java
C:\work\merdge_siu\workspaceYar\workspaceNeonSIUYo\siu\gws-smev3\smev-v3-service-api\src\main\java\ru\codeinside\smev\v3\service\api\FTPStorage.java
