-------------------------------------------------------------------------------
Test set: ru.codeinside.gws.wsdl.ServiceDefinitionParserTest
-------------------------------------------------------------------------------
Tests run: 3, Failures: 0, Errors: 0, Skipped: 0, Time elapsed: 1.813 sec
